rater,acessibilidade,facilidade,treinamento,instrucoes,instrucoes,linguagem,campos,objetivo,Informa-encontra,Informa-confiavel,Informa-consistencia,Informa-validade,experiencia,Tipo-quimio,Tipo-tumor-adequa,Qt-datas,adverso
a,Excelente (sem nenhuma dificuldade),Excelente (sem nenhuma dificuldade),Bom (quase sem dificuldades),Excelente (sem nenhuma dificuldade),Excelente (sem nenhuma dificuldade),"Clara, permite compreensao sem ajuda",Quase sem necessidade de modificacoes,Quase completamente,"Parcialmente, dados com muitas falhas",Quase completamente,Quase completamente,Quase completamente,Ambos,"Muito, mamao com acucar",Inconsistencias foram encontradas,Entre 80 e 50%,Menos de 50%
b,Excelente (sem nenhuma dificuldade),Bom (quase sem dificuldades),Bom (quase sem dificuldades),Bom (quase sem dificuldades),Bom (quase sem dificuldades),"Tecnica, precisei de ajuda",Quase sem necessidade de modificacoes,"Sim, sem falhas",Quase completamente,"Sim, totalmente",Quase completamente,Quase completamente,Sua experiencia com o preenchimento do formulario web,"Regular, demorou um pouco",Dados 100% consistentes,Menos de 50%,Menos de 50%
c,Bom (quase sem dificuldades),Bom (quase sem dificuldades),Excelente (sem nenhuma dificuldade),Bom (quase sem dificuldades),Bom (quase sem dificuldades),"Facil, quase nao tive ajuda",Quase sem necessidade de modificacoes,Quase completamente,Quase completamente,"Sim, totalmente",Quase completamente,"Sim, totalmente",Ambos,"Regular, demorou um pouco",Nao consegui completar a tarefa,Mais de 80%,Mais de 80%
d,Excelente (sem nenhuma dificuldade),Excelente (sem nenhuma dificuldade),Excelente (sem nenhuma dificuldade),Excelente (sem nenhuma dificuldade),Excelente (sem nenhuma dificuldade),"Facil, quase nao tive ajuda",Quase sem necessidade de modificacoes,"Sim, sem falhas","Parcialmente, dados com muitas falhas",Quase completamente,Quase completamente,Quase completamente,Sua experiencia com a coleta de dados com fichas fisicas,"Muito, mamao com acucar",Nao consegui completar a tarefa,Menos de 50%,Menos de 50%
e,Bom (quase sem dificuldades),Bom (quase sem dificuldades),Bom (quase sem dificuldades),Bom (quase sem dificuldades),Bom (quase sem dificuldades),"Facil, quase nao tive ajuda",Quase sem necessidade de modificacoes,Quase completamente,Quase completamente,Quase completamente,Quase completamente,"Sim, totalmente",Ambos,"Sim, porem tive alguma dificuldade",Dados 100% consistentes,Mais de 80%,Menos de 50%
